{
  "project_info": {
    "project_number": "85888849691",
    "firebase_url": "https://kotlin-79158.firebaseio.com",
    "project_id": "kotlin-79158",
    "storage_bucket": "kotlin-79158.appspot.com"
  },
  "client": [
    {
      "client_info": {
        "mobilesdk_app_id": "1:85888849691:android:e86ae630aa09289ec5a5be",
        "android_client_info": {
          "package_name": "fr.tchatat.kotlinchat"
        }
      },
      "oauth_client": [
        {
          "client_id": "85888849691-fu0j5e8ipvmu4v9tm6n6f9or1np36agp.apps.googleusercontent.com",
          "client_type": 3
        }
      ],
      "api_key": [
        {
          "current_key": "AIzaSyCOLYJyNuMDcxu4RbN6J9GEkVEaQ5c6pgQ"
        }
      ],
      "services": {
        "appinvite_service": {
          "other_platform_oauth_client": [
            {
              "client_id": "85888849691-fu0j5e8ipvmu4v9tm6n6f9or1np36agp.apps.googleusercontent.com",
              "client_type": 3
            }
          ]
        }
      }
    },
    {
      "client_info": {
        "mobilesdk_app_id": "1:85888849691:android:7bd67c77ab8c9df2c5a5be",
        "android_client_info": {
          "package_name": "kotlin.tchat_app.authentication"
        }
      },
      "oauth_client": [
        {
          "client_id": "85888849691-je9aida3dkebb4at5t9iqeoaqprl21kl.apps.googleusercontent.com",
          "client_type": 1,
          "android_info": {
            "package_name": "kotlin.tchat_app.authentication",
            "certificate_hash": "9ec9919571418416950bee85181db1cd8e97c774"
          }
        },
        {
          "client_id": "85888849691-fu0j5e8ipvmu4v9tm6n6f9or1np36agp.apps.googleusercontent.com",
          "client_type": 3
        }
      ],
      "api_key": [
        {
          "current_key": "AIzaSyCOLYJyNuMDcxu4RbN6J9GEkVEaQ5c6pgQ"
        }
      ],
      "services": {
        "appinvite_service": {
          "other_platform_oauth_client": [
            {
              "client_id": "85888849691-fu0j5e8ipvmu4v9tm6n6f9or1np36agp.apps.googleusercontent.com",
              "client_type": 3
            }
          ]
        }
      }
    }
  ],
  "configuration_version": "1"
}